{"level":"silly","message":"[server:settings/database:configure] started","timestamp":"2019-11-02T05:22:22.036Z"}
{"url":"mongodb://127.0.0.1:27017/redskyWebsiteApis","database":"redskyWebsiteApis","level":"info","message":"[server:settings/database:configure] connecting to","timestamp":"2019-11-02T05:22:22.038Z"}
{"level":"silly","message":"[server:settings/express/configure] started","timestamp":"2019-11-02T05:22:22.136Z"}
{"took":0.001,"level":"silly","message":"[server:settings/express/configure] took: 0.001 second(s)","timestamp":"2019-11-02T05:22:22.138Z"}
{"level":"silly","message":"[server:settings:routes:configure] started","timestamp":"2019-11-02T05:22:22.565Z"}
{"took":0.001,"level":"silly","message":"[server:settings:routes:configure] took: 0.001 second(s)","timestamp":"2019-11-02T05:22:22.566Z"}
{"level":"silly","message":"[server:app:boot] started","timestamp":"2019-11-02T05:22:22.566Z"}
{"level":"info","message":"[server:app:boot] environment:  undefined","timestamp":"2019-11-02T05:22:22.566Z"}
{"level":"info","message":"[server:app:boot] starting server ...","timestamp":"2019-11-02T05:22:22.567Z"}
{"took":0.012,"level":"silly","message":"[server:app:boot] took: 0.012 second(s)","timestamp":"2019-11-02T05:22:22.578Z"}
{"level":"info","message":"[server:settings/database:configure] DB Connected","timestamp":"2019-11-02T05:22:22.592Z"}
{"level":"silly","message":"[permit:context:builder:api/applyPost] started","timestamp":"2019-11-02T05:22:32.728Z"}
{"level":"silly","message":"[permit:context:builder:services/applyPost] started","timestamp":"2019-11-02T05:22:34.811Z"}
{"level":"silly","message":"[server:settings/database:configure] started","timestamp":"2019-11-02T05:36:55.988Z"}
{"url":"mongodb://127.0.0.1:27017/redskyWebsiteApis","database":"redskyWebsiteApis","level":"info","message":"[server:settings/database:configure] connecting to","timestamp":"2019-11-02T05:36:55.989Z"}
{"level":"silly","message":"[server:settings/express/configure] started","timestamp":"2019-11-02T05:36:56.080Z"}
{"took":0.001,"level":"silly","message":"[server:settings/express/configure] took: 0.001 second(s)","timestamp":"2019-11-02T05:36:56.082Z"}
{"level":"silly","message":"[server:settings:routes:configure] started","timestamp":"2019-11-02T05:36:56.468Z"}
{"took":0.001,"level":"silly","message":"[server:settings:routes:configure] took: 0.001 second(s)","timestamp":"2019-11-02T05:36:56.468Z"}
{"level":"silly","message":"[server:app:boot] started","timestamp":"2019-11-02T05:36:56.468Z"}
{"level":"info","message":"[server:app:boot] environment:  undefined","timestamp":"2019-11-02T05:36:56.468Z"}
{"level":"info","message":"[server:app:boot] starting server ...","timestamp":"2019-11-02T05:36:56.469Z"}
{"took":0.012,"level":"silly","message":"[server:app:boot] took: 0.012 second(s)","timestamp":"2019-11-02T05:36:56.480Z"}
{"level":"info","message":"[server:settings/database:configure] DB Connected","timestamp":"2019-11-02T05:36:56.493Z"}
{"level":"silly","message":"[permit:context:builder:api/applyPost] started","timestamp":"2019-11-02T05:37:12.159Z"}
{"level":"silly","message":"[permit:context:builder:services/applyPost] started","timestamp":"2019-11-02T05:37:14.845Z"}
{"level":"silly","message":"[server:settings/database:configure] started","timestamp":"2019-11-02T05:37:37.523Z"}
{"url":"mongodb://127.0.0.1:27017/redskyWebsiteApis","database":"redskyWebsiteApis","level":"info","message":"[server:settings/database:configure] connecting to","timestamp":"2019-11-02T05:37:37.524Z"}
{"level":"silly","message":"[server:settings/express/configure] started","timestamp":"2019-11-02T05:37:37.613Z"}
{"took":0.003,"level":"silly","message":"[server:settings/express/configure] took: 0.003 second(s)","timestamp":"2019-11-02T05:37:37.617Z"}
{"level":"silly","message":"[server:settings:routes:configure] started","timestamp":"2019-11-02T05:37:37.998Z"}
{"took":0.001,"level":"silly","message":"[server:settings:routes:configure] took: 0.001 second(s)","timestamp":"2019-11-02T05:37:37.999Z"}
{"level":"silly","message":"[server:app:boot] started","timestamp":"2019-11-02T05:37:37.999Z"}
{"level":"info","message":"[server:app:boot] environment:  undefined","timestamp":"2019-11-02T05:37:37.999Z"}
{"level":"info","message":"[server:app:boot] starting server ...","timestamp":"2019-11-02T05:37:38.000Z"}
{"took":0.012,"level":"silly","message":"[server:app:boot] took: 0.012 second(s)","timestamp":"2019-11-02T05:37:38.011Z"}
{"level":"info","message":"[server:settings/database:configure] DB Connected","timestamp":"2019-11-02T05:37:38.024Z"}
{"level":"silly","message":"[permit:context:builder:api/applyPost] started","timestamp":"2019-11-02T05:37:47.954Z"}
{"level":"silly","message":"[permit:context:builder:services/applyPost] started","timestamp":"2019-11-02T05:37:50.175Z"}
{"took":64.576,"level":"silly","message":"[permit:context:builder:services/applyPost] took: 64.576 second(s)","timestamp":"2019-11-02T05:38:54.751Z"}
{"took":66.798,"level":"silly","message":"[permit:context:builder:api/applyPost] took: 66.798 second(s)","timestamp":"2019-11-02T05:38:54.751Z"}
{"level":"silly","message":"[server:settings/database:configure] started","timestamp":"2019-11-02T05:41:48.573Z"}
{"url":"mongodb://127.0.0.1:27017/redskyWebsiteApis","database":"redskyWebsiteApis","level":"info","message":"[server:settings/database:configure] connecting to","timestamp":"2019-11-02T05:41:48.574Z"}
{"level":"silly","message":"[server:settings/express/configure] started","timestamp":"2019-11-02T05:41:48.734Z"}
{"took":0.001,"level":"silly","message":"[server:settings/express/configure] took: 0.001 second(s)","timestamp":"2019-11-02T05:41:48.738Z"}
{"level":"silly","message":"[server:settings:routes:configure] started","timestamp":"2019-11-02T05:41:49.531Z"}
{"took":0.001,"level":"silly","message":"[server:settings:routes:configure] took: 0.001 second(s)","timestamp":"2019-11-02T05:41:49.532Z"}
{"level":"silly","message":"[server:app:boot] started","timestamp":"2019-11-02T05:41:49.532Z"}
{"level":"info","message":"[server:app:boot] environment:  undefined","timestamp":"2019-11-02T05:41:49.532Z"}
{"level":"info","message":"[server:app:boot] starting server ...","timestamp":"2019-11-02T05:41:49.534Z"}
{"took":0.019,"level":"silly","message":"[server:app:boot] took: 0.019 second(s)","timestamp":"2019-11-02T05:41:49.551Z"}
{"level":"info","message":"[server:settings/database:configure] DB Connected","timestamp":"2019-11-02T05:41:49.579Z"}
{"level":"silly","message":"[server:settings/database:configure] started","timestamp":"2019-11-02T05:44:17.493Z"}
{"url":"mongodb://127.0.0.1:27017/redskyWebsiteApis","database":"redskyWebsiteApis","level":"info","message":"[server:settings/database:configure] connecting to","timestamp":"2019-11-02T05:44:17.494Z"}
{"level":"silly","message":"[server:settings/express/configure] started","timestamp":"2019-11-02T05:44:17.583Z"}
{"took":0.003,"level":"silly","message":"[server:settings/express/configure] took: 0.003 second(s)","timestamp":"2019-11-02T05:44:17.587Z"}
{"level":"silly","message":"[server:settings:routes:configure] started","timestamp":"2019-11-02T05:44:17.966Z"}
{"took":0,"level":"silly","message":"[server:settings:routes:configure] took: 0 second(s)","timestamp":"2019-11-02T05:44:17.966Z"}
{"level":"silly","message":"[server:app:boot] started","timestamp":"2019-11-02T05:44:17.966Z"}
{"level":"info","message":"[server:app:boot] environment:  undefined","timestamp":"2019-11-02T05:44:17.966Z"}
{"level":"info","message":"[server:app:boot] starting server ...","timestamp":"2019-11-02T05:44:17.967Z"}
{"took":0.013,"level":"silly","message":"[server:app:boot] took: 0.013 second(s)","timestamp":"2019-11-02T05:44:17.979Z"}
{"level":"info","message":"[server:settings/database:configure] DB Connected","timestamp":"2019-11-02T05:44:17.992Z"}
{"level":"silly","message":"[permit:context:builder:api/applyPost] started","timestamp":"2019-11-02T05:45:38.790Z"}
{"level":"silly","message":"[permit:context:builder:services/applyPost] started","timestamp":"2019-11-02T05:45:41.165Z"}
